{
	"app_id": "symfony-core:2.17.0",
	"app_version": "2.17.0",
	"attachments": [],
	"authentication": {
		"authentication_method": "spid",
		"certificate": null,
		"certificate_issuer": null,
		"certificate_subject": null,
		"instant": "2023-05-12T08:57:24.882Z",
		"session_id": "_805de251977c980598c949aac9cb9b0c",
		"session_index": "byz1yqRXwkHkCJtU/ATiCBxMmu34Hj6L1d7a/MUlRLSNPpbl32m8lEoUIFm6Ep5w",
		"spid_code": "PTITR6OVA120RG",
		"spid_level": null
	},
	"backoffice_data": null,
	"compiled_modules": [
		{
			"created_at": "2023-05-12T12:15:15+02:00",
			"description": "Modulo Segnala disservizio 2023-05-12 12:15",
			"external_id": null,
			"id": "f088d651-134e-4932-b29d-c3db7afc9812",
			"name": "645e11a89b995.pdf",
			"originalName": "modulo-segnala-disservizio-202305121215.pdf",
			"protocol_number": null,
			"protocol_required": true,
			"url": "https://segnalaci.genova.opencityitalia.it/app/api/applications/b18d29ba-96fb-4fd4-9e65-d669b664d9d3/attachments/f088d651-134e-4932-b29d-c3db7afc9812?version=1"
		}
	],
	"created_at": "2023-05-12T12:13:09+02:00",
	"creation_time": 1683886389,
	"data": {
		"address.address.ISO3166-2-lvl4": "IT-42",
		"address.address.ISO3166-2-lvl6": "IT-GE",
		"address.address.city": "Genoa",
		"address.address.country": "Italy",
		"address.address.country_code": "it",
		"address.address.county": "Genoa",
		"address.address.neighbourhood": "Ghetto",
		"address.address.postcode": "16100",
		"address.address.road": "Via del Campo",
		"address.address.suburb": "Centro Est",
		"address.boundingbox.0": "44.4119776",
		"address.boundingbox.1": "44.4129251",
		"address.boundingbox.2": "8.9272481",
		"address.boundingbox.3": "8.929244",
		"address.class": "highway",
		"address.display_name": "Via del Campo, Ghetto, Centro Est, Genoa, Liguria, 16100, Italy",
		"address.importance": 0.5318117876502598,
		"address.lat": "44.4124089",
		"address.licence": "Data © OpenStreetMap contributors, ODbL 1.0. https://osm.org/copyright",
		"address.lon": "8.9282527",
		"address.osm_id": 301627280,
		"address.osm_type": "way",
		"address.place_id": 181319856,
		"address.type": "pedestrian",
		"applicant.data.completename.data.name": "Mirko",
		"applicant.data.completename.data.surname": "Crobu",
		"applicant.data.email_address": "mirko.crobu2@gmail.com",
		"applicant.data.fiscal_code.data.fiscal_code": "CRBMRK90B25E004Y",
		"applicant.data.phone_number": "1111111111",
		"details": "www2",
		"docs": [],
		"images": [],
		"subject": "www2",
		"type.label": "Anagrafe, elettorale e cimiteri",
		"type.value": "34a10624-20d8-451e-a805-358aae738e9f"
	},
	"event_created_at": "2023-05-18T23:53:55+02:00",
	"event_id": "9a9b8c6e-e2ce-4055-beed-dde2ce9d685f",
	"event_version": 2,
	"external_id": null,
	"flow_changed_at": "2023-05-18T23:53:55+02:00",
	"geographic_areas": [
		{
			"id": "4652f2ea-5162-491f-a65a-36cb07d836b4",
			"name": "01"
		}
	],
	"id": "b18d29ba-76fb-4fd4-9t65-d669b664d9d3",
	"integrations": [],
	"latest_status_change_at": "2023-05-18T23:53:55+02:00",
	"latest_status_change_time": 1684446835,
	"links": [
		{
			"action": "request-integration",
			"description": "Request integration",
			"url": "https://segnalaci.genova.opencityitalia.it/app/api/applications/b18d29ba-96fb-4fd4-9e65-d669b664d9d3/transition/request-integration?version=1"
		},
		{
			"action": "accept",
			"description": "Accept Application",
			"url": "https://segnalaci.genova.opencityitalia.it/app/api/applications/b18d29ba-96fb-4fd4-9e65-d669b664d9d3/transition/accept?version=1"
		},
		{
			"action": "reject",
			"description": "Reject Application",
			"url": "https://segnalaci.genova.opencityitalia.it/app/api/applications/b18d29ba-96fb-4fd4-9e65-d669b664d9d3/transition/reject?version=1"
		},
		{
			"action": "withdraw",
			"description": "Withdraw Application",
			"url": "https://segnalaci.genova.opencityitalia.it/app/api/applications/b18d29ba-96fb-4fd4-9e65-d669b664d9d3/transition/withdraw?version=1"
		}
	],
	"meetings": [],
	"outcome": null,
	"outcome_attachments": [],
	"outcome_file": null,
	"outcome_motivation": null,
	"outcome_protocol_document_id": null,
	"outcome_protocol_number": null,
	"outcome_protocol_numbers": null,
	"outcome_protocol_time": null,
	"outcome_protocolled_at": null,
	"path": "/applications",
	"payment_data": [],
	"payment_type": null,
	"protocol_document_id": null,
	"protocol_folder_code": null,
	"protocol_folder_number": null,
	"protocol_number": null,
	"protocol_numbers": [],
	"protocol_time": null,
	"protocolled_at": null,
	"service": "segnala-disservizio",
	"service_group_name": null,
	"service_id": "fabe6333-cd8c-4574-9fe8-f908134254a7",
	"service_name": "Segnala disservizio",
	"source_type": "http",
	"status": "4000",
	"status_name": "status_pending",
	"subject": "Segnala disservizio Mirko Crobu CRBMRK90B25E004Y",
	"submission_time": 1683886501,
	"submitted_at": "2023-05-12T12:15:01+02:00",
	"tenant": "372e94f0-d441-4d84-9961-3a0b1bb2c2c2",
	"tenant_id": "372e94f0-d441-4d84-9961-3a0b1bb2c2c2",
	"timestamp": "2023-05-18T21:53:55.663028177Z",
	"user": "a7f51954-ea5f-44f4-9bc0-071ae2372fa6",
	"user_compilation_notes": null,
	"user_name": "Mirko Crobu Crobu Crobu Crobu Crobu",
	"x-forwarded-for": "172.31.70.195"
}