{
	"app_id": "symfony-core:2.15.2",
	"app_version": "2.15.2",
	"attachments": [],
	"author_id": "4ea31294-4c2b-48a2-ace9-f8f2e455c50e",
	"clicked_at": null,
	"created_at": "2023-04-18T12:16:26+02:00",
	"email": null,
	"event_created_at": "2023-04-18T12:16:26+02:00",
	"event_id": "48fb6c9b-73b6-4dcd-a2c7-eb27688e6e62",
	"event_version": 2,
	"external_id": null,
	"id": "ce2acfcf-e7c1-4c3e-acc1-b2f9f0fdf9c4",
	"message": "<p>dcadsakjsdf</p>",
	"path": "/messages",
	"protocol_number": null,
	"protocol_required": false,
	"protocolled_at": null,
	"read_at": null,
	"related_entity_id": "4704f077-f24f-41f9-9013-993ed77c34e1",
	"sent_at": null,
	"source_type": "http",
	"subject": null,
	"tenant_id": "372e94f0-d441-4d84-9961-3a0b1bb2c2c2",
	"timestamp": "2023-04-18T10:16:26.621009980Z",
	"transmission_type": "inbound",
	"visibility": "applicant",
	"x-forwarded-for": "172.31.70.195"
}